{
  "name": "personality",
  "language": "pl",
  "questions": [
    {
      "type": "CLOSE",
      "nr": "1",
      "description": "Jaka książka sprawia Ci najwięcej przyjemności?",
      "closeTypeData": {
        "oneAnswerCorrect": "true",
        "answers": [
          {
            "key": "a",
            "text": "Książka z obrazkami"
          },
          {
            "key": "b",
            "text": "Książka bez obrazków"
          },
          {
            "key": "c",
            "text": "Książka w której trzeba uzupełniać słowa lub krzyżówka"
          }
        ]
      }
    },
    {
      "type": "CLOSE",
      "nr": "2",
      "description": "Kiedy nie jesteś pewny pisowni słowa co robisz?",
      "closeTypeData": {
        "oneAnswerCorrect": "true",
        "answers": [
          {
            "key": "a",
            "text": "Napiszesz słowo by zobaczyć czy wygląda poprawnie"
          },
          {
            "key": "b",
            "text": "Przeliterujesz na głos by usłyszeć czy brzmi poprawnie"
          },
          {
            "key": "c",
            "text": "Napiszesz w powietrzu"
          }
        ]
      }
    },
    {
      "type": "CLOSE",
      "nr": "3",
      "description": "Jesteś na zakupach i stoisz w kolejce do kasy. Co robisz podczas czekania?",
      "closeTypeData": {
        "oneAnswerCorrect": "true",
        "answers": [
          {
            "key": "a",
            "text": "Rozglądasz się na inne wystawione ubrania"
          },
          {
            "key": "b",
            "text": "Nawiązujesz rozmowę z najbliższą osobą w kolejce"
          },
          {
            "key": "c",
            "text": "Robisz ruchy"
          }
        ]
      }
    },
    {
      "type": "CLOSE",
      "nr": "4",
      "description": "Widzisz słowo “kot”, co robisz najpierw?",
      "closeTypeData": {
        "oneAnswerCorrect": "true",
        "answers": [
          {
            "key": "a",
            "text": "Wyobrażasz sobie kota"
          },
          {
            "key": "b",
            "text": "Mówisz “kot” w myślach"
          },
          {
            "key": "c",
            "text": "Myślisz o byciu z kotem (głaszczesz go lub słyszysz mruczenie)"
          }
        ]
      }
    },
    {
      "type": "CLOSE",
      "nr": "5",
      "description": "Jak najbardziej lubisz się uczyć?",
      "closeTypeData": {
        "oneAnswerCorrect": "true",
        "answers": [
          {
            "key": "a",
            "text": "Czytasz podręczniki, notatki, przeglądasz zdjęcia, wykresy"
          },
          {
            "key": "b",
            "text": "Uczysz się z kimś zadając sobie pytania"
          },
          {
            "key": "c",
            "text": "Tworzysz kartki powtórzeniowe, a których możesz się uczyć"
          }
        ]
      }
    },
    {
      "type": "CLOSE",
      "nr": "6",
      "description": "Jaka jest najlepsza droga do nauczenia się przez Ciebie jak coś działa (np. gra)?",
      "closeTypeData": {
        "oneAnswerCorrect": "true",
        "answers": [
          {
            "key": "a",
            "text": "Prosisz kogoś by Ci to pokazał"
          },
          {
            "key": "b",
            "text": "Czytasz instrukcję lub oglądasz poradniki"
          },
          {
            "key": "c",
            "text": "Sam próbujesz to zrozumieć"
          }
        ]
      }
    },
    {
      "type": "CLOSE",
      "nr": "7",
      "description": "Jeżeli poszedłbyś na lekcję tańca co byś z niej zapamiętał?",
      "closeTypeData": {
        "oneAnswerCorrect": "true",
        "answers": [
          {
            "key": "a",
            "text": "Twarze ludzi, którzy tam byli"
          },
          {
            "key": "b",
            "text": "Muzykę, która tam grała"
          },
          {
            "key": "c",
            "text": "Ruchy taneczne oraz jedzenie, które jadłeś"
          }
        ]
      }
    },
    {
      "type": "CLOSE",
      "nr": "8",
      "description": "Co Cię najbardziej rozprasza kiedy próbujesz się uczyć?",
      "closeTypeData": {
        "oneAnswerCorrect": "true",
        "answers": [
          {
            "key": "a",
            "text": "Ludzie przechodzący obok Ciebie"
          },
          {
            "key": "b",
            "text": "Głośne dźwięki"
          },
          {
            "key": "c",
            "text": "Niewygodne krzesło"
          }
        ]
      }
    },
    {
      "type": "CLOSE",
      "nr": "9",
      "description": "Co robisz kiedy jesteś zły?",
      "closeTypeData": {
        "oneAnswerCorrect": "true",
        "answers": [
          {
            "key": "a",
            "text": "Robisz “wkurzoną” minę"
          },
          {
            "key": "b",
            "text": "Krzyczysz"
          },
          {
            "key": "c",
            "text": "Trzaskasz drzwiami"
          }
        ]
      }
    },
    {
      "type": "CLOSE",
      "nr": "10",
      "description": "Co robisz kiedy jesteś szczęśliwy?",
      "closeTypeData": {
        "oneAnswerCorrect": "true",
        "answers": [
          {
            "key": "a",
            "text": "Uśmiechasz się od ucha do ucha"
          },
          {
            "key": "b",
            "text": "Rozmawiasz jak najęty"
          },
          {
            "key": "c",
            "text": "Jesteś pobudzony"
          }
        ]
      }
    },
    {
      "type": "CLOSE",
      "nr": "11",
      "description": "Jak znajdujesz się w miejscu, w którym jesteś nowy?",
      "closeTypeData": {
        "oneAnswerCorrect": "true",
        "answers": [
          {
            "key": "a",
            "text": "Szukasz mapy, która pokazuje Ci co gdzie jest"
          },
          {
            "key": "b",
            "text": "Prosisz kogoś o pomoc"
          },
          {
            "key": "c",
            "text": "Szukasz, póki nie znajdziesz"
          }
        ]
      }
    },
    {
      "type": "CLOSE",
      "nr": "12",
      "description": "Klasę z którym rozszerzeniem byś wybrał?",
      "closeTypeData": {
        "oneAnswerCorrect": "true",
        "answers": [
          {
            "key": "a",
            "text": "Klasę artystyczną"
          },
          {
            "key": "b",
            "text": "Klasę muzyczną"
          },
          {
            "key": "c",
            "text": "Klasę sportową"
          }
        ]
      }
    },
    {
      "type": "CLOSE",
      "nr": "13",
      "description": "Co robisz podczas słuchania muzyki?",
      "closeTypeData": {
        "oneAnswerCorrect": "true",
        "answers": [
          {
            "key": "a",
            "text": "Tworzysz teledysk w myślach"
          },
          {
            "key": "b",
            "text": "Śpiewasz lub nucisz"
          },
          {
            "key": "c",
            "text": "Zaczynasz tańczyć"
          }
        ]
      }
    },
    {
      "type": "CLOSE",
      "nr": "14",
      "description": "Co Cię najbardziej rozprasza podczas lekcji",
      "closeTypeData": {
        "oneAnswerCorrect": "true",
        "answers": [
          {
            "key": "a",
            "text": "Za jasne światło"
          },
          {
            "key": "b",
            "text": "Dźwięki z zewnątrz"
          },
          {
            "key": "c",
            "text": "Za wysoka lub za niska temperatura"
          }
        ]
      }
    },
    {
      "type": "CLOSE",
      "nr": "15",
      "description": "ak spędzasz czas wolny?",
      "closeTypeData": {
        "oneAnswerCorrect": "true",
        "answers": [
          {
            "key": "a",
            "text": "Czytasz"
          },
          {
            "key": "b",
            "text": "Słuchasz muzyki"
          },
          {
            "key": "c",
            "text": "Ćwiczysz"
          }
        ]
      }
    },
    {
      "type": "CLOSE",
      "nr": "16",
      "description": "Jak zapamiętujesz numer telefonu przyjaciela?",
      "closeTypeData": {
        "oneAnswerCorrect": "true",
        "answers": [
          {
            "key": "a",
            "text": "Wyobrażasz sobie jak wybierasz jego numer na klawiaturze"
          },
          {
            "key": "b",
            "text": "Powtarzasz na głos jego numer"
          },
          {
            "key": "c",
            "text": "Zapisujesz jego numer na telefonie"
          }
        ]
      }
    },
    {
      "type": "CLOSE",
      "nr": "17",
      "description": "Gdybyś wygrał zawody jaką nagrodę byś wybrał?",
      "closeTypeData": {
        "oneAnswerCorrect": "true",
        "answers": [
          {
            "key": "a",
            "text": "Plakat"
          },
          {
            "key": "b",
            "text": "Płytę CD"
          },
          {
            "key": "c",
            "text": "Grę (piłkę)"
          }
        ]
      }
    },
    {
      "type": "CLOSE",
      "nr": "18",
      "description": "Gdzie najchętniej poszedłbyś z przyjaciółmi?",
      "closeTypeData": {
        "oneAnswerCorrect": "true",
        "answers": [
          {
            "key": "a",
            "text": "Do kina"
          },
          {
            "key": "b",
            "text": "Na koncert"
          },
          {
            "key": "c",
            "text": "Do parku rozrywki"
          }
        ]
      }
    },
    {
      "type": "CLOSE",
      "nr": "19",
      "description": "Co zapamiętujesz po spotkaniu nowych ludzi?",
      "closeTypeData": {
        "oneAnswerCorrect": "true",
        "answers": [
          {
            "key": "a",
            "text": "Ich twarze, ale nie ich imiona"
          },
          {
            "key": "b",
            "text": "Ich imiona, ale nie ich twarze"
          },
          {
            "key": "c",
            "text": "O czym z nimi rozmawiałeś"
          }
        ]
      }
    },
    {
      "type": "CLOSE",
      "nr": "20",
      "description": "Jak tłumaczysz ludziom jak dojść do twojego miejsca zamieszkania?",
      "closeTypeData": {
        "oneAnswerCorrect": "true",
        "answers": [
          {
            "key": "a",
            "text": "Tłumaczysz im jak wygląda twój dom"
          },
          {
            "key": "b",
            "text": "Podajesz adres"
          },
          {
            "key": "c",
            "text": "Prowadzisz ich za sobą"
          }
        ]
      }
    }
  ]
}
